{
    "page": 1,
    "total_pages": 2,
    "total_records": 18,
    "filtered_data": [
        {
            "Name": "Jane Smith",
            "Address": "456 Elm St",
            "Age": 25
        },
        {
            "Name": "Michael Johnson",
            "Address": "789 Oak St",
            "Age": 35
        },
        {
            "Name": "Emily Davis",
            "Address": "321 Pine St",
            "Age": 28
        },
        {
            "Name": "David Brown",
            "Address": "654 Maple St",
            "Age": 42
        },
        {
            "Name": "Samantha Wilson",
            "Address": "987 Cedar St",
            "Age": 33
        },
        {
            "Name": "Oliver Taylor",
            "Address": "321 Oak Ave",
            "Age": 24
        },
        {
            "Name": "Sophia Lee",
            "Address": "654 Elm Ave",
            "Age": 31
        },
        {
            "Name": "Jacob Martinez",
            "Address": "789 Pine Ave",
            "Age": 27
        },
        {
            "Name": "Isabella Anderson",
            "Address": "123 Maple Ave",
            "Age": 36
        },
        {
            "Name": "Ethan Harris",
            "Address": "456 Birch Ave",
            "Age": 26
        }
    ]
}
